{
	"contents": [
		{
			"text": "<h2>HTML Text</h2><p>Insert HTML text heare</p>",
			"type": "HtmlText",
			"name": "Widget",
			"style": {
				"borderColor": {
					"bottom": "none"
				},
				"padding": {
					"isUniform": true,
					"uniform": 0
				},
				"margin": {
					"isUniform": true,
					"uniform": 0
				},
				"borderRadius": {
					
				},
				"borderStyleColorWidth": {
					
				},
				"borderStyle": {
					
				},
				"borderWidth": {
					
				},
				"flexAlignItem": "wb-flex-item-auto"
			}
		},
		{
			"text": "<h2>HTML Text</h2><p>Insert HTML text heare</p>",
			"type": "HtmlText",
			"name": "Widget"
		},
		{
			"text": "<h2>HTML Text</h2><p>Insert HTML text heare</p>",
			"type": "HtmlText",
			"name": "Widget"
		},
		{
			"style": {
				"padding": {
					
				},
				"margin": {
					"isUniform": true,
					"uniform": 236
				},
				"borderRadius": {
					
				},
				"borderStyleColorWidth": {
					
				},
				"borderStyle": {
					
				},
				"borderWidth": {
					
				},
				"borderColor": {
					"bottom": "none"
				},
				"flexDirection": "wb-flex-row",
				"alignItems": "wb-flex-align-items-stretch",
				"justifyContent": "wb-flex-justify-content-space-around",
				"flexAlignItem": "wb-flex-item-auto"
			},
			"type": "Group",
			"name": "Panel",
			"contents": [
				{
					"text": "<h2>HTML Text</h2><p>Insert HTML text heare</p>",
					"type": "HtmlText",
					"name": "Widget"
				},
				{
					"text": "<h2>HTML Text</h2><p>Insert HTML text heare</p>",
					"type": "HtmlText",
					"name": "Widget"
				}
			]
		}
	],
	"type": "Page",
	"style": {
		"borderColor": {
			"bottom": "none"
		},
		"padding": {
			
		},
		"margin": {
			
		},
		"borderRadius": {
			
		},
		"borderStyleColorWidth": {
			
		},
		"borderStyle": {
			
		},
		"borderWidth": {
			
		},
		"flexDirection": "wb-flex-column",
		"alignItems": "wb-flex-align-items-stretch",
		"justifyContent": "wb-flex-justify-content-start"
	}
}